%YAML 1.1
%TAG !u! tag:unity3d.com,2011:
--- !u!114 &11400000
MonoBehaviour:
  m_ObjectHideFlags: 0
  m_CorrespondingSourceObject: {fileID: 0}
  m_PrefabInstance: {fileID: 0}
  m_PrefabAsset: {fileID: 0}
  m_GameObject: {fileID: 0}
  m_Enabled: 1
  m_EditorHideFlags: 0
  m_Script: {fileID: 11500000, guid: f5dc0f78b85c342f0bb3054eb69a7881, type: 3}
  m_Name: Question8BaterKoffing
  m_EditorClassIdentifier: 
  audio: {fileID: 8300000, guid: bf04e9abfa02e40b398cb6082aa96f7b, type: 3}
  screenImage: {fileID: 21300000, guid: 19231da2b946d45c3b0334a7ffcb3e31, type: 3}
  question: "\xBFQue pokemon habeis atrapado?"
  clue: Que peste
  answer: koffing
