%YAML 1.1
%TAG !u! tag:unity3d.com,2011:
--- !u!114 &11400000
MonoBehaviour:
  m_ObjectHideFlags: 0
  m_CorrespondingSourceObject: {fileID: 0}
  m_PrefabInstance: {fileID: 0}
  m_PrefabAsset: {fileID: 0}
  m_GameObject: {fileID: 0}
  m_Enabled: 1
  m_EditorHideFlags: 0
  m_Script: {fileID: 11500000, guid: f5dc0f78b85c342f0bb3054eb69a7881, type: 3}
  m_Name: Question6Rampa151
  m_EditorClassIdentifier: 
  audio: {fileID: 8300000, guid: f09349a1d2994451db356f2e8d49ff8c, type: 3}
  screenImage: {fileID: 21300000, guid: 5942fcf3a2b834c0888e0991c0fe5de7, type: 3}
  question: Introduce el numero secreto
  clue: A3
  answer: 151
