%YAML 1.1
%TAG !u! tag:unity3d.com,2011:
--- !u!114 &11400000
MonoBehaviour:
  m_ObjectHideFlags: 0
  m_CorrespondingSourceObject: {fileID: 0}
  m_PrefabInstance: {fileID: 0}
  m_PrefabAsset: {fileID: 0}
  m_GameObject: {fileID: 0}
  m_Enabled: 1
  m_EditorHideFlags: 0
  m_Script: {fileID: 11500000, guid: f5dc0f78b85c342f0bb3054eb69a7881, type: 3}
  m_Name: Question14Castillo
  m_EditorClassIdentifier: 
  audio: {fileID: 8300000, guid: c1754ac2592894ebe87843a83ad3a721, type: 3}
  screenImage: {fileID: 21300000, guid: cec71fbe511a3405bbbe3063b4468d41, type: 3}
  question: A POR EL TESORO!
  clue: "La llave est\xE1 en el castillo"
  answer: '-'
