%YAML 1.1
%TAG !u! tag:unity3d.com,2011:
--- !u!114 &11400000
MonoBehaviour:
  m_ObjectHideFlags: 0
  m_CorrespondingSourceObject: {fileID: 0}
  m_PrefabInstance: {fileID: 0}
  m_PrefabAsset: {fileID: 0}
  m_GameObject: {fileID: 0}
  m_Enabled: 1
  m_EditorHideFlags: 0
  m_Script: {fileID: 11500000, guid: f5dc0f78b85c342f0bb3054eb69a7881, type: 3}
  m_Name: Question5.5Tobogan
  m_EditorClassIdentifier: 
  audio: {fileID: 0}
  screenImage: {fileID: 21300000, guid: d129ad0176f6c47e1bda4bf4a5a11966, type: 3}
  question: "Qu\xE9 pokemon hab\xE9is atrapado?"
  clue: ifuuuuuuu
  answer: chikorita
