[api-updater (non-obsolete-error-filter)] 31/07/2021 10:15:52 : Starting /Applications/Unity/Hub/Editor/2020.3.11f1/Unity.app/Contents/Tools/ScriptUpdater/APIUpdater.NonObsoleteApiUpdaterDetector.exe
[api-updater (non-obsolete-error-filter)] 
----------------------------------
jit/startup time      : 125.565ms
moved types parse time: 49ms
candidates parse time : 1ms
C# parse time         : 245ms
candidates check time : 29ms
console write time    : 0ms

[api-updater (non-obsolete-error-filter)] 31/07/2021 14:28:46 : Starting /Applications/Unity/Hub/Editor/2020.3.11f1/Unity.app/Contents/Tools/ScriptUpdater/APIUpdater.NonObsoleteApiUpdaterDetector.exe
[api-updater (non-obsolete-error-filter)] 
----------------------------------
jit/startup time      : 56.895ms
moved types parse time: 41ms
candidates parse time : 1ms
C# parse time         : 231ms
candidates check time : 41ms
console write time    : 0ms

[api-updater (non-obsolete-error-filter)] 31/07/2021 14:30:00 : Starting /Applications/Unity/Hub/Editor/2020.3.11f1/Unity.app/Contents/Tools/ScriptUpdater/APIUpdater.NonObsoleteApiUpdaterDetector.exe
[api-updater (non-obsolete-error-filter)] 
----------------------------------
jit/startup time      : 54.118ms
moved types parse time: 44ms
candidates parse time : 0ms
C# parse time         : 225ms
candidates check time : 40ms
console write time    : 0ms

